(0, 'INVALID ITEM', '1hand'),
(1, 'INVALID HEAD', 'headarmor'),
(2, 'INVALID BODY', 'bodyarmor'),
(3, 'INVALID FOOT', 'footarmor'),
(4, 'INVALID HAND', 'handarmor'),
(5, 'INVALID HORSE', 'horse'),
(6, 'Tattered Headcloth', 'headarmor'),
(7, 'Ragged Woolen Cap', 'headarmor'),
(8, 'Stained Felt Hat', 'headarmor'),
(9, 'Straw Hat', 'headarmor'),
(10, 'Head Wrapping', 'headarmor'),
(11, 'Headcloth', 'headarmor'),
(12, 'Woolen Cap', 'headarmor'),
(13, 'Felt Hat', 'headarmor'),
(14, 'Head Cloth', 'headarmor'),
(15, 'Head Cloth', 'headarmor'),
(16, 'Crown of Flowers', 'headarmor'),
(17, 'Blue Head Scarf', 'headarmor'),
(18, 'Leather Head Scarf', 'headarmor'),
(19, 'Lady Head Cloth', 'headarmor'),
(20, 'Lady Head Cloth', 'headarmor'),
(21, 'Wimple', 'headarmor'),
(22, 'Wimple', 'headarmor'),
(23, 'Barbette', 'headarmor'),
(24, 'Arming Cap', 'headarmor'),
(25, 'Woolen Hood', 'headarmor'),
(26, 'Fur Hat', 'headarmor'),
(27, 'Felt Hat', 'headarmor'),
(28, 'Felt Hat', 'headarmor'),
(29, 'Leather Cap', 'headarmor'),
(30, 'Hood', 'headarmor'),
(31, 'Hood', 'headarmor'),
(32, 'Hood', 'headarmor'),
(33, 'Hood', 'headarmor'),
(34, 'Nomad Cap', 'headarmor'),
(35, 'Nomad Cap', 'headarmor'),
(36, 'Black Hood', 'headarmor'),
(37, 'Coif', 'headarmor'),
(38, 'Pilgrim Hood', 'headarmor'),
(39, 'Priestly Coif', 'headarmor'),
(40, 'Padded Coif', 'headarmor'),
(41, 'Turban', 'headarmor'),
(42, 'Steppe Cap', 'headarmor'),
(43, 'Steppe Cap', 'headarmor'),
(44, 'Leather Helmet', 'headarmor'),
(45, 'Cap with Fur', 'headarmor'),
(46, 'Steppe Cap', 'headarmor'),
(47, 'Leather Warrior Cap', 'headarmor'),
(48, 'Turban with Warrior Cap', 'headarmor'),
(49, 'Leather Helmet', 'headarmor'),
(50, 'Skullcap', 'headarmor'),
(51, 'Fur Helmet', 'headarmor'),
(52, 'Bishops Mitre', 'headarmor'),
(53, 'Mail Coif', 'headarmor'),
(54, 'Footmans Helmet', 'headarmor'),
(55, 'Horseman Helmet', 'headarmor'),
(56, 'Nasal Helmet', 'headarmor'),
(57, 'Helmet with Cap', 'headarmor'),
(58, 'Footman Helmet', 'headarmor'),
(59, 'War Helmet', 'headarmor'),
(60, 'Segmented Helmet', 'headarmor'),
(61, 'Spiked Cap', 'headarmor'),
(62, 'Helmet with Neckguard', 'headarmor'),
(63, 'Flat Topped Helmet', 'headarmor'),
(64, 'Fighter Helmet', 'headarmor'),
(65, 'Kettle Hat', 'headarmor'),
(66, 'Keffiyeh Helmet', 'headarmor'),
(67, 'Helmet with Lamellar Guard', 'headarmor'),
(68, 'Spiked Helmet', 'headarmor'),
(69, 'Mail Coif', 'headarmor'),
(70, 'Huscarls Helmet', 'headarmor'),
(71, 'Bascinet', 'headarmor'),
(72, 'Bascinet with Aventail', 'headarmor'),
(73, 'Bascinet with Nose Guard', 'headarmor'),
(74, 'Nobleman Helmet', 'headarmor'),
(75, 'Guard Helmet', 'headarmor'),
(76, 'Veiled Helmet', 'headarmor'),
(77, 'War Helmet', 'headarmor'),
(78, 'Warlord Helmet', 'headarmor'),
(79, 'Bishops Helm', 'headarmor'),
(80, 'Full Helm', 'headarmor'),
(81, 'War Mask', 'headarmor'),
(82, 'War Mask', 'headarmor'),
(83, 'Great Helmet', 'headarmor'),
(84, 'Winged Great Helmet', 'headarmor'),
(85, 'Black Helmet', 'headarmor'),
(86, 'Ragged Shirt', 'bodyarmor'),
(87, 'Old Coarse Tunic', 'bodyarmor'),
(88, 'Old Linen Tunic', 'bodyarmor'),
(89, 'Ragged Leather Apron', 'bodyarmor'),
(90, 'Old Tabard', 'bodyarmor'),
(91, 'Shirt', 'bodyarmor'),
(92, 'Linen Tunic', 'bodyarmor'),
(93, 'Black Robe', 'bodyarmor'),
(94, 'Dress', 'bodyarmor'),
(95, 'Blue Dress', 'bodyarmor'),
(96, 'Peasant Dress', 'bodyarmor'),
(97, 'Woolen Dress', 'bodyarmor'),
(98, 'Gray Dress', 'bodyarmor'),
(99, 'Brown Dress', 'bodyarmor'),
(100, 'Red Dress', 'bodyarmor'),
(101, 'Green Dress', 'bodyarmor'),
(102, 'Blue Dress', 'bodyarmor'),
(103, 'Red Pattern Dress', 'bodyarmor'),
(104, 'Red Dress', 'bodyarmor'),
(105, 'Brown Dress', 'bodyarmor'),
(106, 'Green Dress', 'bodyarmor'),
(107, 'Purple Dress', 'bodyarmor'),
(108, 'Orange Dress', 'bodyarmor'),
(109, 'Blue Dress', 'bodyarmor'),
(110, 'Leather Dress', 'bodyarmor'),
(111, 'Bride Dress', 'bodyarmor'),
(112, 'Tunic with Green Cape', 'bodyarmor'),
(113, 'Rough Tunic', 'bodyarmor'),
(114, 'Red Shirt', 'bodyarmor'),
(115, 'Pelt Coat', 'bodyarmor'),
(116, 'Worn Robe', 'bodyarmor'),
(117, 'Worn Robe', 'bodyarmor'),
(118, 'Rawhide Coat', 'bodyarmor'),
(119, 'Tunic with Vest', 'bodyarmor'),
(120, 'Leather Apron', 'bodyarmor'),
(121, 'Fur Coat', 'bodyarmor'),
(122, 'Friars Robe', 'bodyarmor'),
(123, 'Skirmisher Armor', 'bodyarmor'),
(124, 'Rich Outfit', 'bodyarmor'),
(125, 'Tabard', 'bodyarmor'),
(126, 'Tribesman Armor', 'bodyarmor'),
(127, 'Leather Vest', 'bodyarmor'),
(128, 'Heraldic Leather Vest', 'bodyarmor'),
(129, 'Leather Jacket', 'bodyarmor'),
(130, 'Priestly Robes', 'bodyarmor'),
(131, 'Arena Tunic', 'bodyarmor'),
(132, 'Leather Breastplate', 'bodyarmor'),
(133, 'Leather Armor', 'bodyarmor'),
(134, 'Pilgrim Disguise', 'bodyarmor'),
(135, 'Red Gambeson', 'bodyarmor'),
(136, 'Aketon', 'bodyarmor'),
(137, 'Padded Cloth', 'bodyarmor'),
(138, 'Archers Padded Vest', 'bodyarmor'),
(139, 'Nomad Vest', 'bodyarmor'),
(140, 'Highlander Outfit', 'bodyarmor'),
(141, 'Surgeons Coat', 'bodyarmor'),
(142, 'Nomad Armor', 'bodyarmor'),
(143, 'Nomad Robe', 'bodyarmor'),
(144, 'Light Leather', 'bodyarmor'),
(145, 'Leather Jerkin', 'bodyarmor'),
(146, 'Padded Leather', 'bodyarmor'),
(147, 'Heraldic Ring Mail', 'bodyarmor'),
(148, 'Tribal Warrior Outfit', 'bodyarmor'),
(149, 'Leather Armor', 'bodyarmor'),
(150, 'Courtly Outfit', 'bodyarmor'),
(151, 'Nobleman Outfit', 'bodyarmor'),
(152, 'Brown Mail Shirt', 'bodyarmor'),
(153, 'Jack of Plates over Mail Shirt', 'bodyarmor'),
(154, 'Byrnie', 'bodyarmor'),
(155, 'Haubergeon', 'bodyarmor'),
(156, 'Guard Armor', 'bodyarmor'),
(157, 'Lamellar Vest', 'bodyarmor'),
(158, 'Lamellar Heraldic Vest', 'bodyarmor'),
(159, 'Mail Shirt', 'bodyarmor'),
(160, 'Mail Hauberk', 'bodyarmor'),
(161, 'Orange Mail Shirt', 'bodyarmor'),
(162, 'Bishops Armor', 'bodyarmor'),
(163, 'Surcoat over Mail', 'bodyarmor'),
(164, 'Surcoat over Mail', 'bodyarmor'),
(165, 'Heraldic Brigandine', 'bodyarmor'),
(166, 'Mail Robe', 'bodyarmor'),
(167, 'Lamellar Armor', 'bodyarmor'),
(168, 'Scale Armor', 'bodyarmor'),
(169, 'Banded Armor', 'bodyarmor'),
(170, 'Cuir Bouilli', 'bodyarmor'),
(171, 'Coat of Plates', 'bodyarmor'),
(172, 'Heraldic Coat of Plates', 'bodyarmor'),
(173, 'Heraldic Elite Armor', 'bodyarmor'),
(174, 'Elite Armor', 'bodyarmor'),
(175, 'Elite Armor', 'bodyarmor'),
(176, 'Plate Armor', 'bodyarmor'),
(177, 'Black Armor', 'bodyarmor'),
(178, 'Light Heraldic Mail', 'bodyarmor'),
(179, 'Heraldic Mail with Tunic', 'bodyarmor'),
(180, 'Heraldic Mail with Tabard', 'bodyarmor'),
(181, 'Heraldic Mail with Surcoat', 'bodyarmor'),
(182, 'Tattered Wrapping Boots', 'footarmor'),
(183, 'Ripped Woolen Hose', 'footarmor'),
(184, 'Old Hide Boots', 'footarmor'),
(185, 'Wrapping Boots', 'footarmor'),
(186, 'Woolen Hose', 'footarmor'),
(187, 'Friars Sandals', 'footarmor'),
(188, 'Blue Hose', 'footarmor'),
(189, 'Bride Shoes', 'footarmor'),
(190, 'Priestly Leggings', 'footarmor'),
(191, 'Pointed Shoes', 'footarmor'),
(192, 'Hunter Boots', 'footarmor'),
(193, 'Hide Boots', 'footarmor'),
(194, 'Ankle Boots', 'footarmor'),
(195, 'Nomad Boots', 'footarmor'),
(196, 'Light Leather Boots', 'footarmor'),
(197, 'Leather Boots', 'footarmor'),
(198, 'Pointed Leather Boots', 'footarmor'),
(199, 'Black Leather Boots', 'footarmor'),
(200, 'Plated Boots', 'footarmor'),
(201, 'Splinted Leather Greaves', 'footarmor'),
(202, 'Bishops Chausses', 'footarmor'),
(203, 'Mail Chausses', 'footarmor'),
(204, 'Splinted Greaves', 'footarmor'),
(205, 'Mail Boots', 'footarmor'),
(206, 'Mail Boots', 'footarmor'),
(207, 'Iron Greaves', 'footarmor'),
(208, 'Plate Boots', 'footarmor'),
(209, 'Black Greaves', 'footarmor'),
(210, 'Leather Gloves', 'handarmor'),
(211, 'Bishops Gloves', 'handarmor'),
(212, 'Mail Mittens', 'handarmor'),
(213, 'Lamellar Gauntlets', 'handarmor'),
(214, 'Scale Gauntlets', 'handarmor'),
(215, 'Gauntlets with vambraces', 'handarmor'),
(216, 'Club', '1hand'),
(217, 'Spiked Club', '1hand'),
(218, 'Crude Knife', '1hand'),
(219, 'Crude Spear', 'polearm'),
(220, 'Crude Axe', '1hand'),
(221, 'Chipped Falchion', '1hand'),
(222, 'Rusty Sword', '1hand'),
(223, 'Training Sword', '1hand'),
(224, 'Bent Lance', 'polearm'),
(225, 'Practice Sword', '1hand'),
(226, 'Heavy Practice Sword', '2hand'),
(227, 'Flanged Mace', '1hand'),
(228, 'Steel Mace', '1hand'),
(229, 'Knobbed Mace', '1hand'),
(230, 'Winged Mace', '1hand'),
(231, 'Spiked Staff', '2hand'),
(232, 'Long Spiked Club', 'polearm'),
(233, 'Long Hafted Spiked Mace', 'polearm'),
(234, 'Fighting Pick', '1hand'),
(235, 'Military Pick', '1hand'),
(236, 'Military Sickle', '1hand'),
(237, 'Military Hammer', '1hand'),
(238, 'Morningstar', '2hand'),
(239, 'Falchion', '1hand'),
(240, 'Curved Sword', '1hand'),
(241, 'Sword', '1hand'),
(242, 'Short Sword', '1hand'),
(243, 'Arming Sword', '1hand'),
(244, 'Knightly Sword', '1hand'),
(245, 'Nordic Sword', '1hand'),
(246, 'Nordic Short Sword', '1hand'),
(247, 'Nordic Long Sword', '1hand'),
(248, 'Arabian Sword', '1hand'),
(249, 'Arabian Arming Sword', '1hand'),
(250, 'Arabian Cavalry Sword', '1hand'),
(251, 'Arabian Guard Sword', '1hand'),
(252, 'Scimitar', '1hand'),
(253, 'Elite Scimitar', '1hand'),
(254, 'Sabre', '1hand'),
(255, 'Heavy Sabre', '1hand'),
(256, 'Two Handed Sabre', '2hand'),
(257, 'War Cleaver', '2hand'),
(258, 'Soldiers Cleaver', '1hand'),
(259, 'Military Cleaver', '1hand'),
(260, 'Bastard Sword', '2hand'),
(261, 'Heavy Bastard Sword', '2hand'),
(262, 'Two Handed Sword', '2hand'),
(263, 'Great Sword', '2hand'),
(264, 'One Handed War Axe', '1hand'),
(265, 'One Handed Axe', '1hand'),
(266, 'One Handed Battle Axe', '1hand'),
(267, 'Spiked One Handed Battle Axe', '1hand'),
(268, 'Iron Battle Axe', '1hand'),
(269, 'Iron War Axe', '1hand'),
(270, 'Two Handed Axe', '2hand'),
(271, 'Two Handed War Axe', 'polearm'),
(272, 'Shortened Voulge', 'polearm'),
(273, 'Bardiche', 'polearm'),
(274, 'Shortened Military Scythe', '2hand'),
(275, 'Two Handed Iron Axe', '2hand'),
(276, 'Two Handed Iron Axe', '2hand'),
(277, 'Long Axe', 'polearm'),
(278, 'Glaive', 'polearm'),
(279, 'Staff', 'polearm'),
(280, 'Quarter Staff', 'polearm'),
(281, 'Iron Staff', 'polearm'),
(282, 'Shortened Spear', 'polearm'),
(283, 'Spear', 'polearm'),
(284, 'Bamboo Spear', 'polearm'),
(285, 'War Spear', 'polearm'),
(286, 'Long Spear', 'polearm'),
(287, 'Lance', 'polearm'),
(288, 'Heavy Lance', 'polearm'),
(289, 'Great Lance', 'polearm'),
(290, 'Jousting Lance', 'polearm'),
(291, 'Awlpike', 'polearm'),
(292, 'Long Awlpike', 'polearm'),
(293, 'Pike', 'polearm'),
(294, 'War Hammer', 'polearm'),
(295, 'Bishops Crosier', '2hand'),
(296, 'Makeshift Bow', 'bow'),
(297, 'Stone Arrows', 'arrows'),
(298, 'Light Wooden Crossbow', 'crossbow'),
(299, 'Wooden Bolts', 'bolts'),
(300, 'Hunting Bow', 'bow'),
(301, 'Short Bow', 'bow'),
(302, 'Nomad Bow', 'bow'),
(303, 'Self Bow', 'bow'),
(304, 'Khergit Bow', 'bow'),
(305, 'Strong Bow', 'bow'),
(306, 'War Bow', 'bow'),
(307, 'Arrows', 'arrows'),
(308, 'Barbed Arrows', 'arrows'),
(309, 'Broadhead Arrows', 'arrows'),
(310, 'Bodkin Arrows', 'arrows'),
(311, 'Hunting Crossbow', 'crossbow'),
(312, 'Light Crossbow', 'crossbow'),
(313, 'Crossbow', 'crossbow'),
(314, 'Heavy Crossbow', 'crossbow'),
(315, 'Siege Crossbow', 'crossbow'),
(316, 'Bolts', 'bolts'),
(317, 'Steel Bolts', 'bolts'),
(318, 'Old Shield', 'shield'),
(319, 'Practice Shield', 'shield'),
(320, 'Plain Round Shield', 'shield'),
(321, 'Round Shield', 'shield'),
(322, 'Heavy Round Shield', 'shield'),
(323, 'Huscarls Round Shield', 'shield'),
(324, 'Plain Kite Shield', 'shield'),
(325, 'Kite Shield', 'shield'),
(326, 'Heavy Kite Shield', 'shield'),
(327, 'Horsemans Kite Shield', 'shield'),
(328, 'Knightly Kite Shield', 'shield'),
(329, 'Plain Heater Shield', 'shield'),
(330, 'Heater Shield', 'shield'),
(331, 'Heavy Heater Shield', 'shield'),
(332, 'Horsemans Heater Shield', 'shield'),
(333, 'Knightly Heater Shield', 'shield'),
(334, 'Plain Pavaise', 'shield'),
(335, 'Pavaise', 'shield'),
(336, 'Reinforced Pavaise', 'shield'),
(337, 'Plain Cavalry Shield', 'shield'),
(338, 'Round Cavalry Shield', 'shield'),
(339, 'Elite Cavalry Shield', 'shield'),
(340, 'Hide Covered Round Shield', 'shield'),
(341, 'Hide Covered Kite Shield', 'shield'),
(342, 'Steel Shield', 'shield'),
(343, 'Sumpter Horse', 'horse'),
(344, 'Cart Horse', 'horse'),
(345, 'Saddle Horse', 'horse'),
(346, 'Steppe Horse', 'horse'),
(347, 'Desert Horse', 'horse'),
(348, 'Silver Horse', 'horse'),
(349, 'Courser', 'horse'),
(350, 'Hunter', 'horse'),
(351, 'War Horse', 'horse'),
(352, 'Steppe War Horse', 'horse'),
(353, 'Barded War Horse', 'horse'),
(354, 'Charger', 'horse'),
(355, 'Plated Charger', 'horse'),
(356, 'Deer', 'horse'),
(357, 'Fawn', 'horse'),
(358, 'Boar', 'horse'),
(359, 'Boarlet', 'horse'),
(360, 'Cow', 'horse'),
(361, 'Calf', 'horse'),
(362, 'Stick', '1hand'),
(363, 'Stick', '1hand'),
(364, 'Branch', 'polearm'),
(365, 'Short Wooden Pole', 'polearm'),
(366, 'Wooden Pole', 'polearm'),
(367, 'Wood Block', 'polearm'),
(368, 'Board', '1hand'),
(369, 'Small Iron Ore', 'polearm'),
(370, 'Iron Ore', 'polearm'),
(371, 'Iron Piece', '1hand'),
(372, 'Short Iron Bar', '1hand'),
(373, 'Iron Bar', '1hand'),
(374, 'Long Iron Bar', 'polearm'),
(375, 'Gold Nugget', '1hand'),
(376, 'Gold Bar', '1hand'),
(377, 'Silver Nugget', '1hand'),
(378, 'Silver Bar', '1hand'),
(379, 'Flax Bundle', '1hand'),
(380, 'Linen Thread', '1hand'),
(381, 'Linen Cloth', '1hand'),
(382, 'Small Linen Cloth', '1hand'),
(383, 'Raw Hide', '1hand'),
(384, 'Leather Roll', '1hand'),
(385, 'Leather Piece', '1hand'),
(386, 'Saddle', 'polearm'),
(387, 'Horse Armor', 'polearm'),
(388, 'Hatchet', '1hand'),
(389, 'Small Mining Pick', '1hand'),
(390, 'Woodcutters Axe', '2hand'),
(391, 'Mining Pick', 'polearm'),
(392, 'Repair Hammer', '1hand'),
(393, 'Lock Pick', '1hand'),
(394, 'Admin Lock Pick', '1hand'),
(395, 'Bucket', '1hand'),
(396, 'Water Bucket', '1hand'),
(397, 'Fishing Spear', 'polearm'),
(398, 'Fishing Net', '1hand'),
(399, 'Blunt Sickle', '1hand'),
(400, 'Sickle', '1hand'),
(401, 'Scythe', 'polearm'),
(402, 'Kitchen Knife', '1hand'),
(403, 'Butchering Cleaver', '1hand'),
(404, 'Knife', '1hand'),
(405, 'Butchering Knife', '1hand'),
(406, 'Broom', 'polearm'),
(407, 'Herding Crook', '2hand'),
(408, 'Herding Crook', 'polearm'),
(409, 'Fish', '1hand'),
(410, 'Cooked Fish', '1hand'),
(411, 'Salted Fish', '1hand'),
(412, 'Wheat Sack', 'thrown'),
(413, 'Wheat Sheaf', '1hand'),
(414, 'Flour Sack', 'polearm'),
(415, 'Bread', '1hand'),
(416, 'Beer Cask', 'polearm'),
(417, 'Beer Jug', '1hand'),
(418, 'Grapes', '1hand'),
(419, 'Must Barrel', 'polearm'),
(420, 'Wine Barrel', 'polearm'),
(421, 'Wine Jar', '1hand'),
(422, 'Raw Meat', 'polearm'),
(423, 'Cooked Meat', 'polearm'),
(424, 'Cured Meat', 'polearm'),
(425, 'Meat Pie', '1hand'),
(426, 'Red Apple', '1hand'),
(427, 'Apple Pie', '1hand'),
(428, 'Carrot', '1hand'),
(429, 'Salt Sack', '1hand'),
(430, 'Salt', '1hand'),
(431, 'Surgeons Scalpel', '1hand'),
(432, 'Admin Scalpel', '1hand'),
(433, 'Herb', '1hand'),
(434, 'Herb', '1hand'),
(435, 'Dagger', '1hand'),
(436, 'Poisoned Dagger', '1hand'),
(437, 'Thin Lance', 'polearm'),
(438, 'Broken Lance', 'polearm'),
(439, 'Money Bag', '1hand'),
(440, 'Torch', '1hand'),
(441, 'Book of Clothing', '1hand'),
(442, 'Book of Weapons', '1hand'),
(443, 'Book of Armor', '1hand'),
(444, 'Book of Healing', '1hand'),
(445, 'Book', '1hand'),
(446, 'Sacred Book', '1hand'),
(447, 'Sacred Book', '2hand'),
(448, 'Lyre', 'polearm'),
(449, 'Lute', 'polearm'),
(450, 'Dart', 'thrown'),
(451, 'Die', '1hand'),
(452, 'Banner', 'polearm'),
(453, 'Banner', 'polearm'),
(454, 'Banner', 'polearm'),
(455, 'Banner', 'polearm'),
(456, 'Banner', 'polearm'),
(457, 'Banner', 'polearm'),
(458, 'Banner', 'polearm'),
(459, 'Banner', 'polearm'),
(460, 'Banner', 'polearm'),
(461, 'Banner', 'polearm'),
(462, 'Banner', 'polearm'),
(463, 'Banner', 'polearm'),
(464, 'Banner', 'polearm'),
(465, 'Banner', 'polearm'),
(466, 'Banner', 'polearm'),
(467, 'Banner', 'polearm'),
(468, 'Banner', 'polearm'),
(469, 'Banner', 'polearm'),
(470, 'Banner', 'polearm'),
(471, 'Banner', 'polearm'),
(472, 'Banner', 'polearm'),
(473, 'Banner', 'polearm'),
(474, 'Banner', 'polearm'),
(475, 'Banner', 'polearm'),
(476, 'Banner', 'polearm'),
(477, 'Banner', 'polearm'),
(478, 'Banner', 'polearm'),
(479, 'Banner', 'polearm'),
(480, 'Banner', 'polearm'),
(481, 'Banner', 'polearm'),
(482, 'Banner', 'polearm'),
(483, 'Banner', 'polearm'),
(484, 'Banner', 'polearm'),
(485, 'Banner', 'polearm'),
(486, 'Banner', 'polearm'),
(487, 'Banner', 'polearm'),
(488, 'Banner', 'polearm'),
(489, 'Banner', 'polearm'),
(490, 'Banner', 'polearm'),
(491, 'Banner', 'polearm'),
(492, 'Banner', 'polearm'),
(493, 'Banner', 'polearm'),
(494, 'Banner', 'polearm'),
(495, 'Banner', 'polearm'),
(496, 'Banner', 'polearm'),
(497, 'Banner', 'polearm'),
(498, 'Banner', 'polearm'),
(499, 'Banner', 'polearm'),
(500, 'Banner', 'polearm'),
(501, 'Banner', 'polearm'),
(502, 'Banner', 'polearm'),
(503, 'Banner', 'polearm'),
(504, 'Banner', 'polearm'),
(505, 'Banner', 'polearm'),
(506, 'Banner', 'polearm'),
(507, 'Banner', 'polearm'),
(508, 'Banner', 'polearm'),
(509, 'Banner', 'polearm'),
(510, 'Banner', 'polearm'),
(511, 'Banner', 'polearm'),
(512, 'Banner', 'polearm'),
(513, 'Banner', 'polearm'),
(514, 'Banner', 'polearm'),
(515, 'Banner', 'polearm'),
(516, 'Banner', 'polearm'),
(517, 'Banner', 'polearm'),
(518, 'Banner', 'polearm'),
(519, 'Banner', 'polearm'),
(520, 'Banner', 'polearm'),
(521, 'Banner', 'polearm'),
(522, 'Banner', 'polearm'),
(523, 'Banner', 'polearm'),
(524, 'Banner', 'polearm'),
(525, 'Banner', 'polearm'),
(526, 'Banner', 'polearm'),
(527, 'Banner', 'polearm'),
(528, 'Banner', 'polearm'),
(529, 'Banner', 'polearm'),
(530, 'Banner', 'polearm'),
(531, 'Banner', 'polearm'),
(532, 'Banner', 'polearm'),
(533, 'Banner', 'polearm'),
(534, 'Banner', 'polearm'),
(535, 'Banner', 'polearm'),
(536, 'Banner', 'polearm'),
(537, 'Banner', 'polearm'),
(538, 'Banner', 'polearm'),
(539, 'Banner', 'polearm'),
(540, 'Banner', 'polearm'),
(541, 'Banner', 'polearm'),
(542, 'Banner', 'polearm'),
(543, 'Banner', 'polearm'),
(544, 'Banner', 'polearm'),
(545, 'Banner', 'polearm'),
(546, 'Banner', 'polearm'),
(547, 'Banner', 'polearm'),
(548, 'Banner', 'polearm'),
(549, 'Banner', 'polearm'),
(550, 'Banner', 'polearm'),
(551, 'Banner', 'polearm'),
(552, 'Banner', 'polearm'),
(553, 'Banner', 'polearm'),
(554, 'Banner', 'polearm'),
(555, 'Banner', 'polearm'),
(556, 'Banner', 'polearm'),
(557, 'Banner', 'polearm'),
(558, 'Banner', 'polearm'),
(559, 'Banner', 'polearm'),
(560, 'Banner', 'polearm'),
(561, 'Banner', 'polearm'),
(562, 'Banner', 'polearm'),
(563, 'Banner', 'polearm'),
(564, 'Banner', 'polearm'),
(565, 'Banner', 'polearm'),
(566, 'Banner', 'polearm'),
(567, 'Banner', 'polearm'),
(568, 'Banner', 'polearm'),
(569, 'Banner', 'polearm'),
(570, 'Banner', 'polearm'),
(571, 'Banner', 'polearm'),
(572, 'Banner', 'polearm'),
(573, 'Banner', 'polearm'),
(574, 'Banner', 'polearm'),
(575, 'Banner', 'polearm'),
(576, 'Banner', 'polearm'),
(577, 'Banner', 'polearm'),
(578, 'Banner', 'polearm'),
(579, 'Banner', 'polearm'),
(580, 'Banner', 'polearm'),
(581, 'Banner', 'polearm'),
(582, 'Banner', 'polearm'),
(583, 'Banner', 'polearm'),
(584, 'Banner', 'polearm'),
(585, 'Banner', 'polearm'),
(586, 'Banner', 'polearm'),
(587, 'Banner', 'polearm'),
(588, 'Banner', 'polearm'),
(589, 'Banner', 'polearm'),
(590, 'Banner', 'polearm'),
(591, 'Banner', 'polearm'),
(592, 'Banner', 'polearm'),
(593, 'Banner', 'polearm'),
(594, 'Banner', 'polearm'),
(595, 'Banner', 'polearm'),
(596, 'Banner', 'polearm'),
(597, 'Banner', 'polearm'),
(598, 'Banner', 'polearm'),
(599, 'Banner', 'polearm'),
(600, 'Banner', 'polearm'),
(601, 'Banner', 'polearm'),
(602, 'Banner', 'polearm'),
(603, 'Banner', 'polearm'),
(604, 'Banner', 'polearm'),
(605, 'Banner', 'polearm'),
(606, 'Banner', 'polearm'),
(607, 'Banner', 'polearm'),
(608, 'Banner', 'polearm'),
(609, 'Banner', 'polearm'),
(610, 'Banner', 'polearm'),
(611, 'Banner', 'polearm'),
(612, 'Banner', 'polearm'),
(613, 'Banner', 'polearm'),
(614, 'Banner', 'polearm'),
(615, 'Banner', 'polearm'),
(616, 'Banner', 'polearm'),
(617, 'Banner', 'polearm'),
(618, 'Banner', 'polearm'),
(619, 'Banner', 'polearm'),
(620, 'Banner', 'polearm'),
(621, 'Banner', 'polearm'),
(622, 'Banner', 'polearm'),
(623, 'Banner', 'polearm'),
(624, 'Banner', 'polearm'),
(625, 'Banner', 'polearm'),
(626, 'Banner', 'polearm'),
(627, 'Banner', 'polearm'),
(628, 'Banner', 'polearm'),
(629, 'Banner', 'polearm'),
(630, 'Banner', 'polearm'),
(631, 'Banner', 'polearm'),
(632, 'Banner', 'polearm'),
(633, 'Banner', 'polearm'),
(634, 'Banner', 'polearm'),
(635, 'Banner', 'polearm'),
(636, 'Banner', 'polearm'),
(637, 'Banner', 'polearm'),
(638, 'Banner', 'polearm'),
(639, 'Banner', 'polearm'),
(640, 'Banner', 'polearm'),
(641, 'Banner', 'polearm'),
(642, 'Banner', 'polearm'),
(643, 'Banner', 'polearm'),
(644, 'Banner', 'polearm'),
(645, 'Banner', 'polearm'),
(646, 'Banner', 'polearm'),
(647, 'Banner', 'polearm'),
(648, 'Banner', 'polearm'),
(649, 'Banner', 'polearm'),
(650, 'Banner', 'polearm'),
(651, 'Banner', 'polearm'),
(652, 'Banner', 'polearm'),
(653, 'Banner', 'polearm'),
(654, 'Banner', 'polearm'),
(655, 'Banner', 'polearm'),
(656, 'Banner', 'polearm'),
(657, 'Banner', 'polearm'),
(658, 'Banner', 'polearm'),
(659, 'Banner', 'polearm'),
(660, 'Banner', 'polearm'),
(661, 'Banner', 'polearm'),
(662, 'Banner', 'polearm'),
(663, 'Banner', 'polearm'),
(664, 'Banner', 'polearm'),
(665, 'Banner', 'polearm'),
(666, 'Banner', 'polearm'),
(667, 'Banner', 'polearm'),
(668, 'Banner', 'polearm'),
(669, 'Banner', 'polearm'),
(670, 'Banner', 'polearm'),
(671, 'Banner', 'polearm'),
(672, 'Banner', 'polearm'),
(673, 'Banner', 'polearm'),
(674, 'Banner', 'polearm'),
(675, 'Banner', 'polearm'),
(676, 'Banner', 'polearm'),
(677, 'Banner', 'polearm'),
(678, 'Banner', 'polearm'),
(679, 'Banner', 'polearm'),
(680, 'Banner', 'polearm'),
(681, 'Banner', 'polearm'),
(682, 'Banner', 'polearm'),
(683, 'Banner', 'polearm'),
(684, 'Banner', 'polearm'),
(685, 'Banner', 'polearm'),
(686, 'Banner', 'polearm'),
(687, 'Banner', 'polearm'),
(688, 'Banner', 'polearm'),
(689, 'Banner', 'polearm'),
(690, 'Banner', 'polearm'),
(691, 'Banner', 'polearm'),
(692, 'Banner', 'polearm'),
(693, 'Banner', 'polearm'),
(694, 'Banner', 'polearm'),
(695, 'Banner', 'polearm'),
(696, 'Banner', 'polearm'),
(697, 'Banner', 'polearm'),
(698, 'Banner', 'polearm'),
(699, 'Banner', 'polearm'),
(700, 'Banner', 'polearm'),
(701, 'Banner', 'polearm'),
(702, 'Banner', 'polearm'),
(703, 'Banner', 'polearm'),
(704, 'Banner', 'polearm'),
(705, 'Banner', 'polearm'),
(706, 'Banner', 'polearm'),
(707, 'Banner', 'polearm'),
(708, 'Banner', 'polearm'),
(709, 'Banner', 'polearm'),
(710, 'Banner', 'polearm'),
(711, 'Banner', 'polearm'),
(712, 'Banner', 'polearm'),
(713, 'Banner', 'polearm'),
(714, 'Banner', 'polearm'),
(715, 'Banner', 'polearm'),
(716, 'Banner', 'polearm'),
(717, 'Banner', 'polearm'),
(718, 'Banner', 'polearm'),
(719, 'Banner', 'polearm'),
(720, 'Banner', 'polearm'),
(721, 'Banner', 'polearm'),
(722, 'Banner', 'polearm'),
(723, 'Banner', 'polearm'),
(724, 'Castle Banner', ''),
(725, 'Castle Banner', ''),
(726, 'Castle Banner', ''),
(727, 'Castle Banner', ''),
(728, 'Castle Banner', ''),
(729, 'Castle Banner', ''),
(730, 'Castle Banner', ''),
(731, 'Castle Banner', ''),
(732, 'Castle Banner', ''),
(733, 'Castle Banner', ''),
(734, 'Castle Banner', ''),
(735, 'Castle Banner', ''),
(736, 'Castle Banner', ''),
(737, 'Castle Banner', ''),
(738, 'Castle Banner', ''),
(739, 'Castle Banner', ''),
(740, 'Wall Banner', ''),
(741, 'Wall Banner', ''),
(742, 'Wall Banner', ''),
(743, 'Wall Banner', ''),
(744, 'Wall Banner', ''),
(745, 'Wall Banner', ''),
(746, 'Wall Banner', ''),
(747, 'Wall Banner', ''),
(748, 'Wall Banner', ''),
(749, 'Wall Banner', ''),
(750, 'Wall Banner', ''),
(751, 'Wall Banner', ''),
(752, 'Wall Banner', ''),
(753, 'Wall Banner', ''),
(754, 'Wall Banner', ''),
(755, 'Wall Banner', ''),
(756, 'Admin Horse', 'horse'),
(757, 'Invisible Head', 'headarmor'),
(758, 'Invisible Body', 'bodyarmor'),
(759, 'Invisible Foot', 'footarmor'),
(760, 'Invisible Hand', 'handarmor'),
(761, 'Invisible Sword', '2hand'),
(762, 'Warhorn', '1hand'),
(763, 'Sausage', '1hand'),
(764, 'Cheese', '2hand'),
(765, 'Cabbage', '1hand'),
(766, 'Cauldron of Stew', 'polearm'),
(767, 'Bowl of Stew', '1hand'),
(768, 'Pig', 'horse'),
(769, 'Stone', 'thrown'),
(770, 'Heavy Stone', 'thrown'),
(771, 'Admin Catapult shot', 'thrown'),
(772, 'Admin Trebuchet shot', 'thrown'),
(773, 'Admin Mangonel shot', 'thrown'),
(774, 'Admin Ballista shot', 'bolts'),
(775, 'Admin Ballista', 'crossbow'),
(776, 'Throwing Knives', 'thrown'),
(777, 'Throwing Daggers', 'thrown'),
(778, 'War Darts', 'thrown'),
(779, 'Javelins', 'thrown'),
(780, 'Javelin (alt)', 'polearm'),
(781, 'Throwing Spears', 'thrown'),
(782, 'Throwing Spear (alt)', 'polearm'),
(783, 'Jarids', 'thrown'),
(784, 'Jarid (alt)', 'polearm'),
(785, 'Long Bow', 'bow'),
(786, 'Training Arrows', 'arrows'),
(787, 'Light Throwing Axes', 'thrown'),
(788, 'Light Throwing Axe (alt)', '1hand'),
(789, 'Throwing Axes', 'thrown'),
(790, 'Throwing Axe (alt)', '1hand'),
(791, 'Heavy Throwing Axes', 'thrown'),
(792, 'Heavy Throwing Axe (alt)', '1hand'),
(793, 'Deployable Pavise', 'shield'),
(794, 'Targe', 'shield'),
(795, 'Steel Buckler', 'shield'),
(796, 'Steel Buckler', 'shield'),
(797, 'Plain Wooden Round Shield', 'shield'),
(798, 'Wooden Round Shield', 'shield'),
(799, 'Reinforced Wooden Round Shield', 'shield'),
(800, 'Leather Covered Targe', 'shield'),
(801, 'Reinforced Targe', 'shield'),
(802, 'Reinforced Cavalry Shield', 'shield'),
(803, 'Warhammer', '1hand'),
(804, 'Spiked Mace', '1hand'),
(805, 'Studded Club', '1hand'),
(806, 'Knightly Mace', '1hand'),
(807, 'Long Knightly Mace', '2hand'),
(808, 'Long Hafted Mace', 'polearm'),
(809, 'Double Sided Lance', 'polearm'),
(810, 'Great Sword', '2hand'),
(811, 'Great Bardiche', 'polearm'),
(812, 'Crude Voulge', 'polearm'),
(813, 'Long Voulge', 'polearm'),
(814, 'Long Bardiche', 'polearm'),
(815, 'Great Long Bardiche', 'polearm'),
(816, 'Military Scythe', 'polearm'),
(817, 'Upright Scythe', 'polearm'),
(818, 'Billhook', 'polearm'),
(819, 'Pitch Fork', 'polearm'),
(820, 'Military Fork', 'polearm'),
(821, 'Battle Fork', 'polearm'),
(822, 'Boar Spear', 'polearm'),
(823, 'Ox Tongue', 'polearm'),
(824, 'Fauchard', 'polearm'),
(825, 'Trident', 'polearm'),
(826, 'Halberd', 'polearm'),
(827, 'Powder and Bullets', 'bullets'),
(828, 'Hand Bombard', 'musket'),
(829, 'Hand Bombard (melee)', '1hand'),
(830, 'Hand Gonne', 'musket'),
(831, 'Hand Gonne (melee)', '1hand'),
(832, 'Hackbut', 'musket'),
(833, 'Hackbut (melee)', '1hand'),
(834, 'Hackbut', 'musket'),
(835, 'Hackbut (melee)', '2hand'),
(836, 'Hand Cannon', 'musket'),
(837, 'Hand Cannon (melee)', '2hand'),
(838, 'Hackbut (axe)', 'musket'),
(839, 'Hackbut (axe, melee)', '1hand'),
(840, 'The Bearsbane', 'polearm'),
(841, 'The Bearsbane (alt)', '2hand'),
(842, 'Durqubian Steel Scimitar', '1hand'),
(843, 'Durqubian Steel Knife', '1hand'),
(844, 'Axe of Pius II', '2hand'),
(845, 'The Pigs Mace', '1hand'),
(846, 'Mace of Saint Lazlo', '2hand'),
(847, 'Knights of the Shield Poleaxe', 'polearm'),
(848, 'Knights of the Shield Poleaxe (alt)', 'polearm'),
(849, 'Claymore', '2hand'),
(850, 'Hafted Blade', 'polearm'),
(851, 'Hafted Blade', 'polearm'),
(852, 'Poleaxe', 'polearm'),
(853, 'Polehammer', 'polearm'),
(854, 'Great Long Axe', 'polearm'),
(855, 'Long War Axe', 'polearm'),
(856, 'Two Handed War Axe', 'polearm'),
(857, 'Great Axe', 'polearm'),
(858, 'Poleaxe', 'polearm'),
(859, 'Poleaxe (alt)', 'polearm'),
(860, 'Fancy Poleaxe', 'polearm'),
(861, 'Fancy Poleaxe (alt)', 'polearm'),
(862, 'Poleax', 'polearm'),
(863, 'Poleax (alt)', 'polearm'),
(864, 'Simple Poleaxe', 'polearm'),
(865, 'Simple Poleaxe (alt)', 'polearm'),
(866, 'Crows Beak', 'polearm'),
(867, 'Crows Beak (alt)', 'polearm'),
(868, 'Bill', 'polearm'),
(869, 'Bill (alt)', 'polearm'),
(870, 'Halberd', 'polearm'),
(871, 'Halberd (alt)', 'polearm'),
(872, 'Guisarme', 'polearm'),
(873, 'Long Spear', 'polearm'),
(874, 'Glaive', 'polearm'),
(875, 'Glaive', 'polearm'),
(876, 'Partisan', 'polearm'),
(877, 'Ashwood Pike', 'polearm'),
(878, 'Heavy Long Pike', 'polearm'),
(879, 'Long War Spear', 'polearm'),
(880, 'Heavy Knightly Poleaxe', 'polearm'),
(881, 'Heavy Knightly Poleaxe (alt)', 'polearm'),
(882, 'Long Knightly Poleaxe', 'polearm'),
(883, 'Long Knightly Poleaxe (alt)', 'polearm'),
(884, 'Zweihander', 'polearm'),
(885, 'Zweihander (alt)', '2hand'),
(886, 'Estoc', '2hand'),
(887, 'Fancy Bastard Sword', '2hand'),
(888, 'Fancy Voulge', 'polearm'),
(889, 'Knightly hammer', '1hand'),
(890, 'Knightly hammer (alt)', '1hand'),
(891, 'Knightly axe', '2hand'),
(892, 'Knightly axe (alt)', '2hand'),
(893, 'Knightly axe', '1hand'),
(894, 'Knightly axe (alt)', '1hand'),
(895, 'Plain Knightly axe', '1hand'),
(896, 'Plain Knightly axe (alt)', '1hand'),
(897, 'Fancy Knightly axe', '1hand'),
(898, 'Fancy Knightly axe (alt)', '1hand'),
(899, 'Riders Pick', '1hand'),
(900, 'Riders Pick (alt)', '1hand'),
(901, 'Reinforced Warhammer', '2hand'),
(902, 'Reinforced Warhammer (alt)', '2hand'),
(903, 'Morningstar', '1hand'),
(904, 'Morningstar', '1hand'),
(905, 'Spiked Mace', '1hand'),
(906, 'Picot', '1hand'),
(907, 'Ridged Mace', '1hand'),
(908, 'Long Flanged Knightly Mace', '2hand'),
(909, 'Flanged Knightly Mace', '2hand'),
(910, 'Vaegir Bardiche', 'polearm'),
(911, 'Crows Beak', 'polearm'),
(912, 'Crows Beak (alt)', 'polearm'),
(913, 'Crows Beak', 'polearm'),
(914, 'Crows Beak (alt)', 'polearm'),
(915, 'Long Bill-Guisarme', 'polearm'),
(916, 'Short Bill-Guisarme', 'polearm'),
(917, 'Long Guisarme', 'polearm'),
(918, 'Plain Bill', 'polearm'),
(919, 'Plain Voulge', 'polearm'),
(920, 'Voulge', 'polearm'),
(921, 'Executioners Axe', '2hand'),
(922, 'Simple Arming Sword', '1hand'),
(923, 'Simple Arming Sword', '1hand'),
(924, 'Simple Arming Sword', '1hand'),
(925, 'Short Arming Sword', '1hand'),
(926, 'Plain Bastard Sword', '2hand'),
(927, 'Plain Bastard Sword', '2hand'),
(928, 'Swadian Twohander', '2hand'),
(929, 'Vaegir Shashqa', '1hand'),
(930, 'Side-sword', '1hand'),
(931, 'Plain Longsword', '2hand'),
(932, 'Greatsword', '2hand'),
(933, 'Longsword', '2hand'),
(934, 'Fancy Longsword', '2hand'),
(935, 'Arming Sword', '1hand'),
(936, 'Broadsword', '1hand'),
(937, 'Fancy Cutlass', '1hand'),
(938, 'Makerists Longsword', '2hand'),
(939, 'Messer', '1hand'),
(940, 'Messer', '2hand'),
(941, 'Fancy Arming Sword', '1hand'),
(942, 'Bollock Dagger', '1hand'),
(943, 'Pikemans Dagger', '1hand'),
(944, 'Rondel Dagger', '1hand'),
(945, 'Steel Rondel Dagger', '1hand'),
(946, 'Sarranid Knife', '1hand'),
(947, 'Long Saex', '1hand'),
(948, 'Itachoes Dagger', '1hand'),
(949, 'Red Robe with Cape', 'bodyarmor'),
(950, 'White Robe with Cape', 'bodyarmor'),
(951, 'Green Robe with Cape', 'bodyarmor'),
(952, 'Stripped Robe with Cape', 'bodyarmor'),
(953, 'Rich Robe with Cape', 'bodyarmor'),
(954, 'White Robe', 'bodyarmor'),
(955, 'Red Robe', 'bodyarmor'),
(956, 'Blue Robe', 'bodyarmor'),
(957, 'Rich Robe', 'bodyarmor'),
(958, 'Rich Tunic', 'bodyarmor'),
(959, 'Sarranid Shirt', 'bodyarmor'),
(960, 'Sarranid Robe', 'bodyarmor'),
(961, 'Sarranid Robe', 'bodyarmor'),
(962, 'Green Shirt', 'bodyarmor'),
(963, 'Blue Shirt', 'bodyarmor'),
(964, 'Purple Shirt', 'bodyarmor'),
(965, 'Shirt', 'bodyarmor'),
(966, 'Blue Robe', 'bodyarmor'),
(967, 'Golden Robe', 'bodyarmor'),
(968, 'White Robe', 'bodyarmor'),
(969, 'Plain Green Shirt', 'bodyarmor'),
(970, 'Tavernkeep Shirt', 'bodyarmor'),
(971, 'Maroon Dress', 'bodyarmor'),
(972, 'Brown Maid Dress', 'bodyarmor'),
(973, 'Handmaid Dress', 'bodyarmor'),
(974, 'Blue Maid Dress', 'bodyarmor'),
(975, 'Peasant Dress', 'bodyarmor'),
(976, 'Blue-gray Dress', 'bodyarmor'),
(977, 'Red Courtly Dress', 'bodyarmor'),
(978, 'Blue Courtly Dress', 'bodyarmor'),
(979, 'Red Ornate Courtly Outfit', 'bodyarmor'),
(980, 'Blue Ornate Courtly Outfit', 'bodyarmor'),
(981, 'Rich Noble Tunic', 'bodyarmor'),
(982, 'Rich Noble Tunic', 'bodyarmor'),
(983, 'Gambeson Over Robe', 'bodyarmor'),
(984, 'Heraldic Gambeson', 'bodyarmor'),
(985, 'White Gambeson', 'bodyarmor'),
(986, 'Blue Gambeson', 'bodyarmor'),
(987, 'White Tunic', 'bodyarmor'),
(988, 'Plain Tabard', 'bodyarmor'),
(989, 'Rivacheg helm', 'headarmor'),
(990, 'Curaw helm', 'headarmor'),
(991, 'Reyvadin helm', 'headarmor'),
(992, 'Reyvadin helm', 'headarmor'),
(993, 'Khudan helm', 'headarmor'),
(994, 'Khudan helm', 'headarmor'),
(995, 'Vaegir helm', 'headarmor'),
(996, 'Reyvadin helm', 'headarmor'),
(997, 'Ankle Boots', 'footarmor'),
(998, 'Leather Boots', 'footarmor'),
(999, 'Splinted Greaves', 'footarmor'),
(1000, 'Vaegir Lamellar', 'bodyarmor'),
(1001, 'Ornate Vaegir Lamellar', 'bodyarmor'),
(1002, 'Kuyak', 'bodyarmor'),
(1003, 'Ornate Kuyak', 'bodyarmor'),
(1004, 'Vaegir Scale', 'bodyarmor'),
(1005, 'Red Plated Brigandine', 'bodyarmor'),
(1006, 'Green Plated Brigandine', 'bodyarmor'),
(1007, 'Grey Plated Brigandine', 'bodyarmor'),
(1008, 'White Plated Brigandine', 'bodyarmor'),
(1009, 'Heraldic Plated Brigandine', 'bodyarmor'),
(1010, 'Plate Armor (blue)', 'bodyarmor'),
(1011, 'Plate Armor (white)', 'bodyarmor'),
(1012, 'Heraldic Plate Armor', 'bodyarmor'),
(1013, 'Ornate Plate Armor (red)', 'bodyarmor'),
(1014, 'Ornate Plate Mail', 'bodyarmor'),
(1015, 'Plain Gambeson', 'bodyarmor'),
(1016, 'Heraldic Gambeson', 'bodyarmor'),
(1017, 'Blue Mail and Plate', 'bodyarmor'),
(1018, 'Orange Mail and Plate', 'bodyarmor'),
(1019, 'White Mail and Plate', 'bodyarmor'),
(1020, 'Heraldic Mail and Plate', 'bodyarmor'),
(1021, 'Splinted Greaves with Spurs', 'footarmor'),
(1022, 'Splinted Greaves', 'footarmor'),
(1023, 'Shynbaulds', 'footarmor'),
(1024, 'Cased Greaves', 'footarmor'),
(1025, 'Onion-top Bascinet', 'headarmor'),
(1026, 'Pigface Bascinet', 'headarmor'),
(1027, 'Hounskull Bascinet', 'headarmor'),
(1028, 'Plain Hounskull Bascinet', 'headarmor'),
(1029, 'Sallet', 'headarmor'),
(1030, 'Sugarloaf Greathelm', 'headarmor'),
(1031, 'Plain Sugarloaf Greathelm', 'headarmor'),
(1032, 'Close Helm', 'headarmor'),
(1033, 'Kettle Hat', 'headarmor'),
(1034, 'Splinted Leather Gauntlets', 'handarmor'),
(1035, 'Splinted Leather Gauntlets', 'handarmor'),
(1036, 'Mail Gauntlets', 'handarmor'),
(1037, 'Ornate Hourglass Gauntlets', 'handarmor'),
(1038, 'Hourglass Gauntlets', 'handarmor'),
(1039, 'Plate Mittens', 'handarmor'),
(1040, 'Bear Paw Shoes', 'footarmor'),
(1041, 'Visored Sallet', 'headarmor'),
(1042, 'Visored Sallet with Coif', 'headarmor'),
(1043, 'Open Sallet', 'headarmor'),
(1044, 'Open Sallet with Coif', 'headarmor'),
(1045, 'Geroian Full Plate Harness', 'bodyarmor'),
(1046, 'Swadian Full Plate Harness', 'bodyarmor'),
(1047, 'Red Light Brigandine', 'bodyarmor'),
(1048, 'Green Light Brigandine', 'bodyarmor'),
(1049, 'Blue Light Brigandine', 'bodyarmor'),
(1050, 'Red Brigandine on Mail', 'bodyarmor'),
(1051, 'Green Brigandine on Mail', 'bodyarmor'),
(1052, 'Blue Brigandine on Mail', 'bodyarmor'),
(1053, 'White Light Brigandine', 'bodyarmor'),
(1054, 'White Brigandine on Mail', 'bodyarmor'),
(1055, 'Padded Jack', 'bodyarmor'),
(1056, 'Woolen Legging', 'footarmor'),
(1057, 'Green Legging', 'footarmor'),
(1058, 'Purple Legging', 'footarmor'),
(1059, 'Bascinet', 'headarmor'),
(1060, 'Klappvisier Bascinet', 'headarmor'),
(1061, 'Chapel-de-Fer (mail)', 'headarmor'),
(1062, 'Chapel-de-Fer (mail)', 'headarmor'),
(1063, 'Chapel-de-Fer (mail)', 'headarmor'),
(1064, 'Chapel-de-Fer (cloth)', 'headarmor'),
(1065, 'Chapel-de-Fer (cloth)', 'headarmor'),
(1066, 'Chapel-de-Fer (cloth)', 'headarmor'),
(1067, 'Gold Ring with Ruby', 'handarmor'),
(1068, 'Gold Ring with Sapphire', 'handarmor'),
(1069, 'Silver Ring with Ruby', 'handarmor'),
(1070, 'Silver Ring with Sapphire', 'handarmor'),
(1071, 'Golden Earrings', 'headarmor'),
(1072, 'Opal Earrings', 'headarmor'),
(1073, 'Agate Earrings', 'headarmor'),
(1074, 'Earrings with Yellow Jade', 'headarmor'),
(1075, 'Amethyst Earrings', 'headarmor'),
(1076, 'Golden Earrings', 'headarmor'),
(1077, 'Sapphire Earrings', 'headarmor'),
(1078, 'Nephrite Earrings', 'headarmor'),
(1079, 'Black Pearl Earrings', 'headarmor'),
(1080, 'Ruby Earrings', 'headarmor'),
(1081, 'Flamberge', 'polearm'),
(1082, 'Flamberge (alt)', '2hand'),
