16
qstr_{s0}^Ironflesh:_{reg {s0}^Ironflesh:_{reg10}
qstr_{s0}^Power_strike:_{ {s0}^Power_strike:_{reg10}
qstr_{s0}^Power_draw:_{re {s0}^Power_draw:_{reg10}
qstr_{s0}^Power_throw:_{r {s0}^Power_throw:_{reg10}
qstr_{s0}^Shield:_{reg10} {s0}^Shield:_{reg10}
qstr_{s0}^Athletics:_{reg {s0}^Athletics:_{reg10}
qstr_{s0}^Riding:_{reg10} {s0}^Riding:_{reg10}
qstr_{s0}^Horse_archery:_ {s0}^Horse_archery:_{reg10}
qstr_{s0}^Engineer:_{reg1 {s0}^Engineer:_{reg10}
qstr_{s0}^Wound_treatment {s0}^Wound_treatment:_{reg10}
qstr_{s0}^Labouring:_{reg {s0}^Labouring:_{reg10}
qstr_{s0}^Looting:_{reg10 {s0}^Looting:_{reg10}
qstr_{s0}^Sailing:_{reg10 {s0}^Sailing:_{reg10}
qstr_{s0}^Tailoring:_{reg {s0}^Tailoring:_{reg10}
qstr_{s0}^Herding:_{reg10 {s0}^Herding:_{reg10}
qstr_http://51.255.199.20 http://51.255.199.201/chatdigest.php?unique_id={reg1}&player_id={reg2}&agent_id={reg3}&eventtype={reg4}&posx={reg5}&posy={reg6}&posz={reg7}&extra_player={reg8}&player_name={s3}&msg={s0}
